<svg id="Layer_1" data-name="Layer 1" xmlns="http://www.w3.org/2000/svg" viewBox="0 0 80 70">
<defs>
<style>.cls-1{fill:#FFFFFF;}</style>
</defs>
<path class="cls-1" d="M17.57,14.71v11H61.78v-11ZM60.06,24H19.28V16.42H60.06Z"/>
<path class="cls-1" d="M17.57,28.84v11H61.78v-11Zm42.49,9.32H19.28V30.55H60.06Z"/>
<path class="cls-1" d="M17.57,43V54H61.78V43Zm42.49,9.32H19.28V44.68H60.06Z"/>
<rect class="cls-1" x="49.78" y="19.48" width="5.93" height="1.71"/>
<rect class="cls-1" x="49.78" y="33.45" width="5.93" height="1.71"/>
<rect class="cls-1" x="49.78" y="47.69" width="5.93" height="1.71"/>
</svg>